year,box_1,box_2,box_3,box_4
1990,100,10,0,0
1991,100,10,0,0
1992,100,10,0,0
1993,100,10,0,0
1994,100,10,0,0
1995,100,10,0,0
1996,100,10,0,0
1997,100,10,0,0
1998,100,10,0,0
1999,100,10,0,0
2000,100,10,0,0
2001,100,10,0,0
2002,100,10,0,0
2003,100,10,0,0
2004,100,10,0,0
2005,100,10,0,0
2006,100,10,0,0
2007,100,10,0,0
2008,100,10,0,0
2009,100,10,0,0
2010,100,10,0,0
2011,100,10,0,0
2012,100,10,0,0
2013,100,10,0,0
2014,100,10,0,0
2015,100,10,0,0
2016,100,10,0,0
2017,100,10,0,0
2018,100,10,0,0
